…
Este crecimiento es el más utilizado.

Podemos graficar los diferentes crecimientos, será más fácil si
cambiamos el formato

``` r
censos %>% 
  select(c(ano, ra, rg, r)) %>% 
  pivot_longer(-ano, names_to = "tipo", values_to = "crecimiento") 
```

    ## # A tibble: 36 x 3
    ##      ano tipo  crecimiento
    ##    <dbl> <chr>       <dbl>
    ##  1  1900 ra       NA      
    ##  2  1900 rg       NA      
    ##  3  1900 r        NA      
    ##  4  1910 ra        0.0114 
    ##  5  1910 rg        0.0109 
    ##  6  1910 r         0.0108 
    ##  7  1921 ra       -0.00496
    ##  8  1921 rg       -0.00508
    ##  9  1921 r        -0.00510
    ## 10  1930 ra        0.0180 
    ## # … with 26 more rows
…
Vamos a hacerla “long”

``` r
pob_censo<-pob_censo %>% 
  pivot_longer(c(x1990:x2010), names_to="ano", values_to="poblacion") %>% 
  mutate(ano=parse_number(ano)) %>% 
  mutate(poblacion=parse_number(poblacion))

pob_censo
```

    ## # A tibble: 207 x 4
    ##    sexo  edad    ano poblacion
    ##    <chr> <chr> <dbl>     <dbl>
    ##  1 Total Total  1990  81249645
    ##  2 Total Total  2000  97483412
    ##  3 Total Total  2010 112336538
    ##  4 Total 0-4    1990  10195178
    ##  5 Total 0-4    2000  10635157
    ##  6 Total 0-4    2010  10528322
    ##  7 Total 5-9    1990  10562234
    ##  8 Total 5-9    2000  11215323
    ##  9 Total 5-9    2010  11047537
    ## 10 Total 10-14  1990  10389092
    ## # … with 197 more rows

Esta base se puede agrupar y es mucho más sencilla de trabajar

``` r
pob_censo <-pob_censo %>% 
 group_by(sexo,edad) %>% #este es un paso esencial 
  mutate(ritmo = poblacion/lag(poblacion)) %>% 
  ungroup()

pob_censo
```

    ## # A tibble: 207 x 5
    ##    sexo  edad    ano poblacion  ritmo
    ##    <chr> <chr> <dbl>     <dbl>  <dbl>
    ##  1 Total Total  1990  81249645 NA    
    ##  2 Total Total  2000  97483412  1.20 
    ##  3 Total Total  2010 112336538  1.15 
    ##  4 Total 0-4    1990  10195178 NA    
    ##  5 Total 0-4    2000  10635157  1.04 
    ##  6 Total 0-4    2010  10528322  0.990
    ##  7 Total 5-9    1990  10562234 NA    
    ##  8 Total 5-9    2000  11215323  1.06 
    ##  9 Total 5-9    2010  11047537  0.985
    ## 10 Total 10-14  1990  10389092 NA    
    ## # … with 197 more rows
…
