…
### Dar formato a la información

Los siguientes códigos sirven para poner esta información en formado de
la HMD (por ejemplo: <http://www.ub.edu/rfa/R/Exposures_1x1SPAIN.txt> )

``` r
pob_1jul0<-pob_1jul0 %>% 
  select(-renglon) %>%  #quita la variable renglón
  filter(cve_geo==0) %>% # selecciona la República Mexicana, si se quiere otro estado se puede modificar
  select(-c(entidad,cve_geo)) # quita estas variables que no están en el formato

pob_1jul0
```

    ## # A tibble: 22,220 x 4
    ##      ano  edad sexo    poblacion
    ##    <dbl> <dbl> <chr>       <dbl>
    ##  1  1950     0 Hombres    572103
    ##  2  1950     0 Mujeres    559162
    ##  3  1950     1 Hombres    514540
    ##  4  1950     1 Mujeres    505269
    ##  5  1950     2 Hombres    478546
    ##  6  1950     2 Mujeres    469322
    ##  7  1950     3 Hombres    451932
    ##  8  1950     3 Mujeres    442707
    ##  9  1950     4 Hombres    430010
    ## 10  1950     4 Mujeres    420903
    ## # … with 22,210 more rows

Para parecerse más a nuestro formato, vamos usar un pivot\_wider:

``` r
pob_1jul_sex<-pob_1jul0 %>% 
  pivot_wider(names_from = sexo, values_from = poblacion) ## Ordena por sexo
pob_1jul_sex
```

    ## # A tibble: 11,110 x 4
    ##      ano  edad Hombres Mujeres
    ##    <dbl> <dbl>   <dbl>   <dbl>
    ##  1  1950     0  572103  559162
    ##  2  1950     1  514540  505269
    ##  3  1950     2  478546  469322
    ##  4  1950     3  451932  442707
    ##  5  1950     4  430010  420903
    ##  6  1950     5  411198  402293
    ##  7  1950     6  394520  385903
    ##  8  1950     7  379508  371222
    ##  9  1950     8  366786  358817
    ## 10  1950     9  355002  347353
    ## # … with 11,100 more rows

Nos faltan los totales:

``` r
pob_1jul_tot<-pob_1jul0 %>% 
  group_by(ano, edad) %>% 
  tally(poblacion) %>% 
  rename(Total=n) # genera el total

pob_1jul_tot
```

    ## # A tibble: 11,110 x 3
    ## # Groups:   ano [101]
    ##      ano  edad   Total
    ##    <dbl> <dbl>   <dbl>
    ##  1  1950     0 1131265
    ##  2  1950     1 1019809
    ##  3  1950     2  947868
    ##  4  1950     3  894639
    ##  5  1950     4  850913
    ##  6  1950     5  813491
    ##  7  1950     6  780423
    ##  8  1950     7  750730
    ##  9  1950     8  725603
    ## 10  1950     9  702355
    ## # … with 11,100 more rows
…
Vamos a volverlo quinquenal:

``` r
pob<-pob %>%
  group_by(Year,eda5) %>% 
    collapse::fsum() %>% 
  select(-c(Age, Total)) %>% 
  ungroup()

pob
```

    ## # A tibble: 46 x 4
    ##     Year eda5     Female    Male
    ##    <dbl> <fct>     <dbl>   <dbl>
    ##  1  1995 [0,1)   1151881 1192057
    ##  2  1995 [1,5)   4567696 4721962
    ##  3  1995 [5,10)  5545218 5695935
    ##  4  1995 [10,15) 5354658 5447734
    ##  5  1995 [15,20) 5070440 4978474
    ##  6  1995 [20,25) 4598901 4369818
    ##  7  1995 [25,30) 3957323 3745723
    ##  8  1995 [30,35) 3390861 3216946
    ##  9  1995 [35,40) 2838958 2702616
    ## 10  1995 [40,45) 2269799 2164863
    ## # … with 36 more rows
…
def
```

    ## # A tibble: 46 x 4
    ##     Year eda5    Female  Male
    ##    <int> <fct>    <dbl> <dbl>
    ##  1  1995 [0,1)    28573 36648
    ##  2  1995 [1,5)     5086  5852
    ##  3  1995 [5,10)    2082  2727
    ##  4  1995 [10,15)   1855  3218
    ##  5  1995 [15,20)   2610  5964
    ##  6  1995 [20,25)   3051  8997
    ##  7  1995 [25,30)   3190 10284
    ##  8  1995 [30,35)   3641 10454
    ##  9  1995 [35,40)   4425 10384
    ## 10  1995 [40,45)   5354 10444
    ## # … with 36 more rows
…
